<svg width="152" height="152" viewBox="0 0 152 152" fill="none" xmlns="http://www.w3.org/2000/svg">
<path d="M121.599 30.0847C113.194 35.9128 104.69 43.7097 95.8539 53.6725C86.228 64.541 76.1061 78.5007 67.6941 92.5129C67.2242 93.2939 66.9436 93.6943 66.8914 93.6746C66.8392 93.6549 62.2187 90.5637 56.6129 86.7965C51.007 83.0292 46.38 79.9249 46.3278 79.8921C46.256 79.8527 46.2626 79.879 46.3409 79.9971C46.9804 80.9159 70.5133 113.324 70.5459 113.331C70.5655 113.331 70.7678 112.898 70.9897 112.36C78.9841 93.2086 86.7958 78.0085 96.0366 63.6156C103.529 51.953 112.228 40.6645 121.482 30.6164C122.076 29.9797 122.545 29.4547 122.532 29.4547C122.519 29.4547 122.095 29.7369 121.599 30.0847Z" fill="white"/>
<circle cx="76" cy="76" r="73.5" stroke="white" stroke-width="5"/>
</svg>
