<svg width="429" height="60" viewBox="0 0 429 60" fill="none" xmlns="http://www.w3.org/2000/svg">
<rect x="1" y="1" width="427" height="58" rx="9" stroke="#1F83FF" stroke-width="2"/>
<path d="M74.6924 37H72.0381V24.3174H80.3438V26.5059H74.6924V29.9072H79.8516V32.0078H74.6924V37ZM81.7764 37V27.3232H84.3428V37H81.7764ZM83.0596 26.2686C82.6787 26.2686 82.3535 26.1396 82.084 25.8818C81.8145 25.624 81.6797 25.3047 81.6797 24.9238C81.6797 24.543 81.8145 24.2266 82.084 23.9746C82.3535 23.7168 82.6787 23.5879 83.0596 23.5879C83.4463 23.5879 83.7744 23.7168 84.0439 23.9746C84.3135 24.2266 84.4482 24.543 84.4482 24.9238C84.4482 25.3047 84.3135 25.624 84.0439 25.8818C83.7744 26.1396 83.4463 26.2686 83.0596 26.2686ZM86.127 37V27.3232H88.6055V29.0547H88.6582C89.2266 27.8066 90.2637 27.1826 91.7695 27.1826C92.8418 27.1826 93.6826 27.502 94.292 28.1406C94.9072 28.7793 95.2148 29.6641 95.2148 30.7949V37H92.6484V31.3311C92.6484 30.6865 92.4814 30.1914 92.1475 29.8457C91.8193 29.4941 91.3535 29.3184 90.75 29.3184C90.1348 29.3184 89.6367 29.5176 89.2559 29.916C88.8809 30.3145 88.6934 30.8359 88.6934 31.4805V37H86.127ZM100.523 37.1143C99.3164 37.1143 98.3525 36.6689 97.6318 35.7783C96.917 34.8818 96.5596 33.6719 96.5596 32.1484C96.5596 30.6367 96.9199 29.4355 97.6406 28.5449C98.3613 27.6543 99.3252 27.209 100.532 27.209C101.224 27.209 101.827 27.3672 102.343 27.6836C102.864 28 103.248 28.4307 103.494 28.9756H103.547V23.7109H106.113V37H103.582V35.3477H103.538C103.298 35.8867 102.911 36.3174 102.378 36.6396C101.845 36.9561 101.227 37.1143 100.523 37.1143ZM101.376 29.2832C100.708 29.2832 100.175 29.5439 99.7764 30.0654C99.3838 30.5811 99.1875 31.2783 99.1875 32.1572C99.1875 33.042 99.3838 33.7451 99.7764 34.2666C100.175 34.7822 100.708 35.04 101.376 35.04C102.038 35.04 102.568 34.7793 102.967 34.2578C103.365 33.7363 103.564 33.0391 103.564 32.166C103.564 31.293 103.365 30.5957 102.967 30.0742C102.568 29.5469 102.038 29.2832 101.376 29.2832ZM116.186 37.167C114.715 37.167 113.552 36.7217 112.696 35.8311C111.841 34.9404 111.413 33.7158 111.413 32.1572C111.413 30.6162 111.844 29.3975 112.705 28.501C113.566 27.6045 114.727 27.1562 116.186 27.1562C117.65 27.1562 118.811 27.6045 119.666 28.501C120.527 29.3916 120.958 30.6104 120.958 32.1572C120.958 33.7217 120.53 34.9492 119.675 35.8398C118.825 36.7246 117.662 37.167 116.186 37.167ZM114.586 34.3984C114.973 34.9258 115.506 35.1895 116.186 35.1895C116.865 35.1895 117.396 34.9258 117.776 34.3984C118.157 33.8652 118.348 33.1182 118.348 32.1572C118.348 31.208 118.154 30.4668 117.768 29.9336C117.387 29.3945 116.859 29.125 116.186 29.125C115.506 29.125 114.973 29.3945 114.586 29.9336C114.205 30.4668 114.015 31.208 114.015 32.1572C114.015 33.1182 114.205 33.8652 114.586 34.3984ZM131.382 27.3232V37H128.903V35.251H128.851C128.604 35.8604 128.218 36.3291 127.69 36.6572C127.169 36.9795 126.542 37.1406 125.81 37.1406C124.749 37.1406 123.896 36.8184 123.252 36.1738C122.613 35.5234 122.294 34.6416 122.294 33.5283V27.3232H124.86V32.9922C124.86 33.6367 125.03 34.1348 125.37 34.4863C125.71 34.832 126.182 35.0049 126.785 35.0049C127.389 35.0049 127.878 34.8057 128.253 34.4072C128.628 34.0088 128.815 33.4844 128.815 32.834V27.3232H131.382ZM133.816 25.1699H136.383V27.3232H138.176V29.2656H136.383V33.9678C136.383 34.7061 136.767 35.0752 137.534 35.0752C137.786 35.0752 138 35.0605 138.176 35.0312V36.9297C137.824 37 137.411 37.0352 136.937 37.0352C135.817 37.0352 135.018 36.8301 134.537 36.4199C134.057 36.0098 133.816 35.333 133.816 34.3896V29.2656H132.507V27.3232H133.816V25.1699ZM143.52 37V27.3232H145.998V29.0811H146.051C146.256 28.4951 146.604 28.0322 147.097 27.6924C147.595 27.3525 148.166 27.1826 148.811 27.1826C149.508 27.1826 150.091 27.3555 150.56 27.7012C151.028 28.041 151.345 28.5273 151.509 29.1602H151.562C151.784 28.5508 152.165 28.0703 152.704 27.7188C153.243 27.3613 153.864 27.1826 154.567 27.1826C155.517 27.1826 156.281 27.4814 156.861 28.0791C157.447 28.6709 157.74 29.4531 157.74 30.4258V37H155.174V31.0674C155.174 30.499 155.033 30.0654 154.752 29.7666C154.477 29.4619 154.078 29.3096 153.557 29.3096C153.053 29.3096 152.646 29.4795 152.335 29.8193C152.024 30.1533 151.869 30.5957 151.869 31.1465V37H149.391V30.9707C149.391 30.4551 149.25 30.0508 148.969 29.7578C148.688 29.459 148.298 29.3096 147.8 29.3096C147.296 29.3096 146.883 29.4854 146.561 29.8369C146.244 30.1826 146.086 30.6309 146.086 31.1816V37H143.52ZM163.857 37.167C162.387 37.167 161.224 36.7217 160.368 35.8311C159.513 34.9404 159.085 33.7158 159.085 32.1572C159.085 30.6162 159.516 29.3975 160.377 28.501C161.238 27.6045 162.398 27.1562 163.857 27.1562C165.322 27.1562 166.482 27.6045 167.338 28.501C168.199 29.3916 168.63 30.6104 168.63 32.1572C168.63 33.7217 168.202 34.9492 167.347 35.8398C166.497 36.7246 165.334 37.167 163.857 37.167ZM162.258 34.3984C162.645 34.9258 163.178 35.1895 163.857 35.1895C164.537 35.1895 165.067 34.9258 165.448 34.3984C165.829 33.8652 166.02 33.1182 166.02 32.1572C166.02 31.208 165.826 30.4668 165.439 29.9336C165.059 29.3945 164.531 29.125 163.857 29.125C163.178 29.125 162.645 29.3945 162.258 29.9336C161.877 30.4668 161.687 31.208 161.687 32.1572C161.687 33.1182 161.877 33.8652 162.258 34.3984ZM170.01 37V27.3232H172.488V29.0547H172.541C172.705 28.4629 172.986 28.0088 173.385 27.6924C173.783 27.3701 174.27 27.209 174.844 27.209C175.131 27.209 175.371 27.2412 175.564 27.3057V29.582C175.336 29.4766 175.028 29.4238 174.642 29.4238C173.991 29.4238 173.484 29.6143 173.121 29.9951C172.758 30.376 172.576 30.9062 172.576 31.5859V37H170.01ZM180.688 29.0723C180.103 29.0723 179.613 29.2656 179.221 29.6523C178.834 30.0391 178.617 30.543 178.57 31.1641H182.745C182.722 30.5312 182.522 30.0244 182.147 29.6436C181.772 29.2627 181.286 29.0723 180.688 29.0723ZM182.78 34.0469H185.145C185.004 34.9844 184.532 35.7402 183.729 36.3145C182.927 36.8828 181.937 37.167 180.759 37.167C179.288 37.167 178.128 36.7246 177.278 35.8398C176.435 34.9551 176.013 33.7422 176.013 32.2012C176.013 30.6602 176.432 29.4355 177.27 28.5273C178.113 27.6133 179.244 27.1562 180.662 27.1562C182.057 27.1562 183.164 27.5898 183.984 28.457C184.811 29.3242 185.224 30.4932 185.224 31.9639V32.7549H178.544V32.9131C178.544 33.6104 178.752 34.1758 179.168 34.6094C179.584 35.0371 180.129 35.251 180.803 35.251C181.289 35.251 181.708 35.1455 182.06 34.9346C182.417 34.7178 182.657 34.4219 182.78 34.0469ZM189.24 36.6924C188.965 36.9678 188.631 37.1055 188.238 37.1055C187.846 37.1055 187.512 36.9678 187.236 36.6924C186.961 36.417 186.823 36.083 186.823 35.6904C186.823 35.2979 186.961 34.9639 187.236 34.6885C187.512 34.4131 187.846 34.2754 188.238 34.2754C188.631 34.2754 188.965 34.4131 189.24 34.6885C189.516 34.9639 189.653 35.2979 189.653 35.6904C189.653 36.083 189.516 36.417 189.24 36.6924ZM189.24 30.4082C188.965 30.6836 188.631 30.8213 188.238 30.8213C187.846 30.8213 187.512 30.6836 187.236 30.4082C186.961 30.1328 186.823 29.7988 186.823 29.4062C186.823 29.0078 186.961 28.6738 187.236 28.4043C187.512 28.1289 187.846 27.9912 188.238 27.9912C188.631 27.9912 188.965 28.1289 189.24 28.4043C189.516 28.6738 189.653 29.0078 189.653 29.4062C189.653 29.7988 189.516 30.1328 189.24 30.4082ZM212.839 27.3232L210.264 37H207.539L205.755 30.1094H205.702L203.936 37H201.237L198.653 27.3232H201.237L202.731 34.5479H202.784L204.533 27.3232H206.994L208.752 34.5479H208.805L210.308 27.3232H212.839ZM227.376 27.3232L224.801 37H222.076L220.292 30.1094H220.239L218.473 37H215.774L213.19 27.3232H215.774L217.269 34.5479H217.321L219.07 27.3232H221.531L223.289 34.5479H223.342L224.845 27.3232H227.376ZM241.913 27.3232L239.338 37H236.613L234.829 30.1094H234.776L233.01 37H230.312L227.728 27.3232H230.312L231.806 34.5479H231.858L233.607 27.3232H236.068L237.826 34.5479H237.879L239.382 27.3232H241.913ZM244.541 36.6924C244.266 36.9678 243.932 37.1055 243.539 37.1055C243.146 37.1055 242.812 36.9678 242.537 36.6924C242.262 36.417 242.124 36.083 242.124 35.6904C242.124 35.2979 242.262 34.9639 242.537 34.6885C242.812 34.4131 243.146 34.2754 243.539 34.2754C243.932 34.2754 244.266 34.4131 244.541 34.6885C244.816 34.9639 244.954 35.2979 244.954 35.6904C244.954 36.083 244.816 36.417 244.541 36.6924ZM247.099 24.3174H252.39C253.696 24.3174 254.754 24.7158 255.562 25.5127C256.377 26.3096 256.784 27.3584 256.784 28.6592C256.784 29.9541 256.365 31.0029 255.527 31.8057C254.689 32.6025 253.6 33.001 252.258 33.001H249.753V37H247.099V24.3174ZM249.753 26.418V30.9268H251.678C252.439 30.9268 253.031 30.7305 253.453 30.3379C253.875 29.9453 254.086 29.3887 254.086 28.668C254.086 27.9473 253.875 27.3936 253.453 27.0068C253.037 26.6143 252.448 26.418 251.687 26.418H249.753ZM258.164 37V27.3232H260.643V29.0547H260.695C260.859 28.4629 261.141 28.0088 261.539 27.6924C261.938 27.3701 262.424 27.209 262.998 27.209C263.285 27.209 263.525 27.2412 263.719 27.3057V29.582C263.49 29.4766 263.183 29.4238 262.796 29.4238C262.146 29.4238 261.639 29.6143 261.275 29.9951C260.912 30.376 260.73 30.9062 260.73 31.5859V37H258.164ZM268.939 37.167C267.469 37.167 266.306 36.7217 265.45 35.8311C264.595 34.9404 264.167 33.7158 264.167 32.1572C264.167 30.6162 264.598 29.3975 265.459 28.501C266.32 27.6045 267.48 27.1562 268.939 27.1562C270.404 27.1562 271.564 27.6045 272.42 28.501C273.281 29.3916 273.712 30.6104 273.712 32.1572C273.712 33.7217 273.284 34.9492 272.429 35.8398C271.579 36.7246 270.416 37.167 268.939 37.167ZM267.34 34.3984C267.727 34.9258 268.26 35.1895 268.939 35.1895C269.619 35.1895 270.149 34.9258 270.53 34.3984C270.911 33.8652 271.102 33.1182 271.102 32.1572C271.102 31.208 270.908 30.4668 270.521 29.9336C270.141 29.3945 269.613 29.125 268.939 29.125C268.26 29.125 267.727 29.3945 267.34 29.9336C266.959 30.4668 266.769 31.208 266.769 32.1572C266.769 33.1182 266.959 33.8652 267.34 34.3984ZM278.81 33.6162H278.757L276.902 37H274.195L277.254 32.1748L274.222 27.3232H277.113L278.889 30.6191H278.941L280.708 27.3232H283.494L280.453 32.1133L283.477 37H280.673L278.81 33.6162ZM284.61 37V27.3232H287.177V37H284.61ZM285.894 26.2686C285.513 26.2686 285.188 26.1396 284.918 25.8818C284.648 25.624 284.514 25.3047 284.514 24.9238C284.514 24.543 284.648 24.2266 284.918 23.9746C285.188 23.7168 285.513 23.5879 285.894 23.5879C286.28 23.5879 286.608 23.7168 286.878 23.9746C287.147 24.2266 287.282 24.543 287.282 24.9238C287.282 25.3047 287.147 25.624 286.878 25.8818C286.608 26.1396 286.28 26.2686 285.894 26.2686ZM288.961 37V27.3232H291.439V29.0811H291.492C291.697 28.4951 292.046 28.0322 292.538 27.6924C293.036 27.3525 293.607 27.1826 294.252 27.1826C294.949 27.1826 295.532 27.3555 296.001 27.7012C296.47 28.041 296.786 28.5273 296.95 29.1602H297.003C297.226 28.5508 297.606 28.0703 298.146 27.7188C298.685 27.3613 299.306 27.1826 300.009 27.1826C300.958 27.1826 301.723 27.4814 302.303 28.0791C302.889 28.6709 303.182 29.4531 303.182 30.4258V37H300.615V31.0674C300.615 30.499 300.475 30.0654 300.193 29.7666C299.918 29.4619 299.52 29.3096 298.998 29.3096C298.494 29.3096 298.087 29.4795 297.776 29.8193C297.466 30.1533 297.311 30.5957 297.311 31.1465V37H294.832V30.9707C294.832 30.4551 294.691 30.0508 294.41 29.7578C294.129 29.459 293.739 29.3096 293.241 29.3096C292.737 29.3096 292.324 29.4854 292.002 29.8369C291.686 30.1826 291.527 30.6309 291.527 31.1816V37H288.961ZM308.587 35.2422C309.19 35.2422 309.697 35.0752 310.107 34.7412C310.518 34.4014 310.723 33.9707 310.723 33.4492V32.7373L308.692 32.8779C308.159 32.9131 307.752 33.0332 307.471 33.2383C307.189 33.4434 307.049 33.7246 307.049 34.082C307.049 34.4395 307.187 34.7236 307.462 34.9346C307.743 35.1396 308.118 35.2422 308.587 35.2422ZM307.752 37.1143C306.809 37.1143 306.029 36.8447 305.414 36.3057C304.799 35.7666 304.491 35.0693 304.491 34.2139C304.491 33.3408 304.816 32.6582 305.467 32.166C306.117 31.6738 307.063 31.3896 308.306 31.3135L310.723 31.1641V30.5225C310.723 30.0596 310.573 29.7051 310.274 29.459C309.976 29.207 309.56 29.0811 309.026 29.0811C308.569 29.0811 308.186 29.1924 307.875 29.415C307.57 29.6318 307.386 29.9189 307.321 30.2764H304.975C305.01 29.3506 305.408 28.6006 306.17 28.0264C306.938 27.4463 307.925 27.1562 309.132 27.1562C310.374 27.1562 311.37 27.4492 312.12 28.0352C312.87 28.6211 313.245 29.3975 313.245 30.3643V37H310.767V35.5059H310.714C310.456 36.0039 310.055 36.3965 309.51 36.6836C308.971 36.9707 308.385 37.1143 307.752 37.1143ZM314.484 37L318.51 30.6455V30.5752L314.511 24.3174H317.631L320.32 28.8877H320.391L323.106 24.3174H326.068L321.92 30.6279V30.6895L326.016 37H322.992L320.215 32.5615H320.145L317.35 37H314.484ZM329.953 36.6924C329.678 36.9678 329.344 37.1055 328.951 37.1055C328.559 37.1055 328.225 36.9678 327.949 36.6924C327.674 36.417 327.536 36.083 327.536 35.6904C327.536 35.2979 327.674 34.9639 327.949 34.6885C328.225 34.4131 328.559 34.2754 328.951 34.2754C329.344 34.2754 329.678 34.4131 329.953 34.6885C330.229 34.9639 330.366 35.2979 330.366 35.6904C330.366 36.083 330.229 36.417 329.953 36.6924ZM340.711 34.8027V37H332.511V24.3174H335.165V34.8027H340.711ZM342.205 25.1699H344.771V27.3232H346.564V29.2656H344.771V33.9678C344.771 34.7061 345.155 35.0752 345.923 35.0752C346.175 35.0752 346.389 35.0605 346.564 35.0312V36.9297C346.213 37 345.8 37.0352 345.325 37.0352C344.206 37.0352 343.406 36.8301 342.926 36.4199C342.445 36.0098 342.205 35.333 342.205 34.3896V29.2656H340.896V27.3232H342.205V25.1699ZM351.504 37.1143C350.297 37.1143 349.333 36.6689 348.612 35.7783C347.897 34.8818 347.54 33.6719 347.54 32.1484C347.54 30.6367 347.9 29.4355 348.621 28.5449C349.342 27.6543 350.306 27.209 351.513 27.209C352.204 27.209 352.808 27.3672 353.323 27.6836C353.845 28 354.229 28.4307 354.475 28.9756H354.527V23.7109H357.094V37H354.562V35.3477H354.519C354.278 35.8867 353.892 36.3174 353.358 36.6396C352.825 36.9561 352.207 37.1143 351.504 37.1143ZM352.356 29.2832C351.688 29.2832 351.155 29.5439 350.757 30.0654C350.364 30.5811 350.168 31.2783 350.168 32.1572C350.168 33.042 350.364 33.7451 350.757 34.2666C351.155 34.7822 351.688 35.04 352.356 35.04C353.019 35.04 353.549 34.7793 353.947 34.2578C354.346 33.7363 354.545 33.0391 354.545 32.166C354.545 31.293 354.346 30.5957 353.947 30.0742C353.549 29.5469 353.019 29.2832 352.356 29.2832Z" fill="#1F83FF"/>
<path d="M413.061 31.0607C413.646 30.4749 413.646 29.5251 413.061 28.9393L403.515 19.3934C402.929 18.8076 401.979 18.8076 401.393 19.3934C400.808 19.9792 400.808 20.9289 401.393 21.5147L409.879 30L401.393 38.4853C400.808 39.0711 400.808 40.0208 401.393 40.6066C401.979 41.1924 402.929 41.1924 403.515 40.6066L413.061 31.0607ZM388 31.5H400V28.5H388V31.5ZM400 31.5H412V28.5H400V31.5Z" fill="#1F83FF"/>
</svg>
